{
    "key": "group_650129c17d9a8",
    "title": "Type: Staff Profile",
    "fields": [
        {
            "key": "field_65012a3da06c0",
            "label": "Title",
            "name": "title",
            "aria-label": "",
            "type": "text",
            "instructions": "",
            "required": 0,
            "conditional_logic": 0,
            "wrapper": {
                "width": "",
                "class": "",
                "id": ""
            },
            "default_value": "",
            "maxlength": "",
            "placeholder": "",
            "prepend": "",
            "append": ""
        },
        {
            "key": "field_650129fb70905",
            "label": "Profile Type",
            "name": "profile_type",
            "aria-label": "",
            "type": "taxonomy",
            "instructions": "",
            "required": 0,
            "conditional_logic": 0,
            "wrapper": {
                "width": "",
                "class": "",
                "id": ""
            },
            "taxonomy": "profile-type",
            "add_term": 0,
            "save_terms": 1,
            "load_terms": 1,
            "return_format": "object",
            "field_type": "radio",
            "allow_null": 1,
            "bidirectional": 0,
            "multiple": 0,
            "bidirectional_target": []
        },
        {
            "key": "field_650129c2de598",
            "label": "Bio",
            "name": "body",
            "aria-label": "",
            "type": "wysiwyg",
            "instructions": "",
            "required": 0,
            "conditional_logic": 0,
            "wrapper": {
                "width": "",
                "class": "",
                "id": ""
            },
            "default_value": "",
            "tabs": "all",
            "toolbar": "full",
            "media_upload": 1,
            "delay": 0
        }
    ],
    "location": [
        [
            {
                "param": "post_type",
                "operator": "==",
                "value": "profile"
            }
        ]
    ],
    "menu_order": 0,
    "position": "normal",
    "style": "default",
    "label_placement": "top",
    "instruction_placement": "label",
    "hide_on_screen": "",
    "active": true,
    "description": "",
    "show_in_rest": 0,
    "modified": 1694581179
}
