{
    "key": "post_type_6500e2f1bb974",
    "title": "Locations",
    "menu_order": 0,
    "active": true,
    "post_type": "location",
    "advanced_configuration": true,
    "import_source": "",
    "import_date": "",
    "labels": {
        "name": "Locations",
        "singular_name": "Location",
        "menu_name": "Location",
        "all_items": "All Location",
        "edit_item": "Edit Location",
        "view_item": "View Location",
        "view_items": "View Location",
        "add_new_item": "Add New Location",
        "add_new": "",
        "new_item": "New Location",
        "parent_item_colon": "Parent Location:",
        "search_items": "Search Location",
        "not_found": "No location found",
        "not_found_in_trash": "No location found in Trash",
        "archives": "Location Archives",
        "attributes": "Location Attributes",
        "featured_image": "",
        "set_featured_image": "",
        "remove_featured_image": "",
        "use_featured_image": "",
        "insert_into_item": "Insert into location",
        "uploaded_to_this_item": "Uploaded to this location",
        "filter_items_list": "Filter location list",
        "filter_by_date": "Filter location by date",
        "items_list_navigation": "Location list navigation",
        "items_list": "Location list",
        "item_published": "Location published.",
        "item_published_privately": "Location published privately.",
        "item_reverted_to_draft": "Location reverted to draft.",
        "item_scheduled": "Location scheduled.",
        "item_updated": "Location updated.",
        "item_link": "Location Link",
        "item_link_description": "A link to a location."
    },
    "description": "",
    "public": true,
    "hierarchical": false,
    "exclude_from_search": false,
    "publicly_queryable": true,
    "show_ui": true,
    "show_in_menu": true,
    "admin_menu_parent": "",
    "show_in_admin_bar": true,
    "show_in_nav_menus": true,
    "show_in_rest": true,
    "rest_base": "",
    "rest_namespace": "wp\/v2",
    "rest_controller_class": "WP_REST_Posts_Controller",
    "menu_position": "",
    "menu_icon": "dashicons-location",
    "rename_capabilities": false,
    "singular_capability_name": "post",
    "plural_capability_name": "posts",
    "supports": [
        "title",
        "author",
        "revisions",
        "thumbnail",
        "custom-fields"
    ],
    "taxonomies": [
        "location-type"
    ],
    "has_archive": false,
    "has_archive_slug": "",
    "rewrite": {
        "permalink_rewrite": "post_type_key",
        "with_front": "1",
        "feeds": "0",
        "pages": "1"
    },
    "query_var": "post_type_key",
    "query_var_name": "",
    "can_export": true,
    "delete_with_user": false,
    "register_meta_box_cb": "",
    "enter_title_here": "",
    "modified": 1696969377
}
